alu_waves.vcd
$date
   Fri Apr  4 11:07:42 2025
$end

$version
  2024.1
  $dumpfile ("alu_waves.vcd") 
$end

$timescale
  1ps
$end

$scope module ALU_System_tb $end
$var reg 4 ! A [3:0] $end
$var reg 4 " B [3:0] $end
$var reg 3 # opcode [2:0] $end
$var reg 1 $ clk $end
$var reg 1 % reset $end
$var wire 4 & d_out [3:0] $end
$var wire 1 ' carry_out $end
$scope module uut $end
$var wire 4 ( A [3:0] $end
$var wire 4 ) B [3:0] $end
$var wire 3 * opcode [2:0] $end
$var wire 1 + clk $end
$var wire 1 , reset $end
$var reg 4 - d_out [3:0] $end
$var wire 1 ' carry_out $end
$var reg 3 . counter [2:0] $end
$var reg 1 / clk_divided $end
$var reg 5 0 alu_result [4:0] $end
$var reg 1 1 latch_out $end
$var wire 1 2 output_change $end
$var wire 1 3 clk_gated $end
$upscope $end
$upscope $end
$enddefinitions $end

#0
$dumpvars
b0 !
b0 "
b0 #
0$
1%
b0 &
0'
b0 (
b0 )
b0 *
0+
1,
b0 -
b0 .
0/
b0 0
01
02
03
$end

#5000
1$
1+

#10000
0$
0+

#15000
1$
1+

#20000
0$
0+

#25000
1$
1+

#30000
0$
0+

#35000
1$
1+

#40000
0$
0+

#45000
1$
1+

#50000
0$
0+

#55000
1$
1+

#60000
0$
0+

#65000
1$
1+

#70000
0$
0+

#75000
1$
1+

#80000
0$
0+

#85000
1$
1+

#90000
0$
0+

#95000
1$
1+

#100000
b1101 !
b1010 "
b111 #
0$
0%
1'
b1101 (
b1010 )
b111 *
0+
0,
b10110 0
11
12

#105000
1$
1+
b1 .

#110000
0$
0+

#115000
1$
1+
b10 .

#120000
0$
0+

#125000
1$
1+
b11 .

#130000
0$
0+

#135000
1$
1+
b100 .

#140000
0$
0+

#145000
1$
b110 &
1+
b110 -
b0 .
1/
01
02
03

#150000
0$
0+

#155000
1$
1+
b1 .

#160000
0$
0+

#165000
1$
1+
b10 .

#170000
0$
0+

#175000
1$
1+
b11 .

#180000
0$
0+

#185000
1$
1+
b100 .

#190000
0$
0+

#195000
1$
1+
b0 .
0/

#200000
b11 !
b101 "
b0 #
0$
0'
b11 (
b101 )
b0 *
0+
b1000 0
11
12

#205000
1$
1+
b1 .

#210000
0$
0+

#215000
1$
1+
b10 .

#220000
0$
0+

#225000
1$
1+
b11 .

#230000
0$
0+

#235000
1$
1+
b100 .

#240000
0$
0+

#245000
1$
b1000 &
1+
b1000 -
b0 .
1/
01
02
03

#250000
0$
0+

#255000
1$
1+
b1 .

#260000
0$
0+

#265000
1$
1+
b10 .

#270000
0$
0+

#275000
1$
1+
b11 .

#280000
0$
0+

#285000
1$
1+
b100 .

#290000
0$
0+

#295000
1$
1+
b0 .
0/

#300000
b1000 !
b11 "
b1 #
0$
1'
b1000 (
b11 )
b1 *
0+
b10101 0
11
12

#305000
1$
1+
b1 .

#310000
0$
0+

#315000
1$
1+
b10 .

#320000
0$
0+

#325000
1$
1+
b11 .

#330000
0$
0+

#335000
1$
1+
b100 .

#340000
0$
0+

#345000
1$
b101 &
1+
b101 -
b0 .
1/
01
02
03

#350000
0$
0+

#355000
1$
1+
b1 .

#360000
0$
0+

#365000
1$
1+
b10 .

#370000
0$
0+

#375000
1$
1+
b11 .

#380000
0$
0+

#385000
1$
1+
b100 .

#390000
0$
0+

#395000
1$
1+
b0 .
0/
