alu_system_waves.vcd
$date
   Thu Apr  3 21:08:09 2025
$end

$version
  2024.1
  $dumpfile ("alu_system_waves.vcd") 
$end

$timescale
  1ps
$end

$scope module ALU_System_tb $end
$var reg 4 ! A [3:0] $end
$var reg 4 " B [3:0] $end
$var reg 3 # opcode [2:0] $end
$var reg 1 $ clk $end
$var reg 1 % reset $end
$var wire 4 & d_out [3:0] $end
$var wire 1 ' carry_out $end
$scope module uut $end
$var wire 4 ( A [3:0] $end
$var wire 4 ) B [3:0] $end
$var wire 3 * opcode [2:0] $end
$var wire 1 + clk $end
$var wire 1 , reset $end
$var reg 4 - d_out [3:0] $end
$var wire 1 ' carry_out $end
$var reg 3 . counter [2:0] $end
$var reg 1 / clk_divided $end
$var reg 5 0 alu_result [4:0] $end
$var wire 1 1 output_change $end
$var reg 1 2 change_latch $end
$var wire 1 3 clk_gated $end
$upscope $end
$scope task test_add $end
$var reg 4 4 a [3:0] $end
$var reg 4 5 b [3:0] $end
$upscope $end
$scope task test_sub $end
$var reg 4 6 a [3:0] $end
$var reg 4 7 b [3:0] $end
$upscope $end
$scope task test_bitwise $end
$var reg 4 8 a [3:0] $end
$var reg 4 9 b [3:0] $end
$upscope $end
$scope task test_not $end
$var reg 4 : a [3:0] $end
$upscope $end
$scope task test_shift $end
$var reg 4 ; a [3:0] $end
$upscope $end
$upscope $end
$enddefinitions $end

#0
$dumpvars
b0 !
b0 "
b0 #
0$
1%
b0 &
0'
b0 (
b0 )
b0 *
0+
1,
b0 -
b0 .
0/
b0 0
01
02
03
bx 4
bx 5
bx 6
bx 7
bx 8
bx 9
bx :
bx ;
$end

#5000
1$
1+

#10000
0$
0+

#15000
1$
1+

#20000
b11 !
b101 "
0$
0%
b11 (
b101 )
0+
0,
b1000 0
11
12
b11 4
b101 5

#25000
1$
1+
b1 .

#30000
0$
0+

#35000
1$
1+
b10 .

#40000
0$
0+

#45000
1$
1+
b11 .

#50000
0$
0+

#55000
1$
1+
b100 .

#60000
0$
0+

#65000
1$
b1000 &
1+
b1000 -
b0 .
1/
01
02
03

#70000
b1111 !
b1 "
0$
b0 &
1'
b1111 (
b1 )
0+
b0 -
b10000 0
01
02
03
b1111 4
b1 5

#75000
1$
1+
b1 .

#80000
0$
0+

#85000
1$
1+
b10 .

#90000
0$
0+

#95000
1$
1+
b11 .

#100000
0$
0+

#105000
1$
1+
b100 .

#110000
0$
0+

#115000
1$
1+
b0 .
0/

#120000
b1000 !
b11 "
b1 #
0$
0'
b1000 (
b11 )
b1 *
0+
b101 0
11
12
b1000 6
b11 7

#125000
1$
1+
b1 .

#130000
0$
0+

#135000
1$
1+
b10 .

#140000
0$
0+

#145000
1$
1+
b11 .

#150000
0$
0+

#155000
1$
1+
b100 .

#160000
0$
0+

#165000
1$
b101 &
1+
b101 -
b0 .
1/
01
02
03

#170000
b1 !
b10 "
0$
b1111 &
1'
b1 (
b10 )
0+
b1111 -
b11111 0
01
02
03
b1 6
b10 7

#175000
1$
1+
b1 .

#180000
0$
0+

#185000
1$
1+
b10 .

#190000
0$
0+

#195000
1$
1+
b11 .

#200000
0$
0+

#205000
1$
1+
b100 .

#210000
0$
0+

#215000
1$
1+
b0 .
0/

#220000
b1100 !
b1010 "
b10 #
0$
0'
b1100 (
b1010 )
b10 *
0+
b1000 0
11
12
b1100 8
b1010 9

#225000
1$
1+
b1 .

#230000
0$
0+

#235000
1$
1+
b10 .

#240000
0$
0+

#245000
1$
1+
b11 .

#250000
0$
0+

#255000
1$
1+
b100 .

#260000
0$
0+

#265000
1$
b1000 &
1+
b1000 -
b0 .
1/
01
02
03

#270000
b11 #
0$
b1110 &
b11 *
0+
b1110 -
b1110 0
01
02
03

#275000
1$
1+
b1 .

#280000
0$
0+

#285000
1$
1+
b10 .

#290000
0$
0+

#295000
1$
1+
b11 .

#300000
0$
0+

#305000
1$
1+
b100 .

#310000
0$
0+

#315000
1$
1+
b0 .
0/

#320000
b100 #
0$
b100 *
0+
b110 0
11
12

#325000
1$
1+
b1 .

#330000
0$
0+

#335000
1$
1+
b10 .

#340000
0$
0+

#345000
1$
1+
b11 .

#350000
0$
0+

#355000
1$
1+
b100 .

#360000
0$
0+

#365000
1$
b110 &
1+
b110 -
b0 .
1/
01
02
03

#370000
b0 "
b101 #
0$
b11 &
b0 )
b101 *
0+
b11 -
b11 0
01
02
03
b1100 :

#375000
1$
1+
b1 .

#380000
0$
0+

#385000
1$
1+
b10 .

#390000
0$
0+

#395000
1$
1+
b11 .

#400000
0$
0+

#405000
1$
1+
b100 .

#410000
0$
0+

#415000
1$
1+
b0 .
0/

#420000
b1101 !
b110 #
0$
1'
b1101 (
b110 *
0+
b11010 0
11
12
b1101 ;

#425000
1$
1+
b1 .

#430000
0$
0+

#435000
1$
1+
b10 .

#440000
0$
0+

#445000
1$
1+
b11 .

#450000
0$
0+

#455000
1$
1+
b100 .

#460000
0$
0+

#465000
1$
b1010 &
1+
b1010 -
b0 .
1/
01
02
03

#470000
b111 #
0$
b110 &
b111 *
0+
b110 -
b10110 0
01
02
03

#475000
1$
1+
b1 .

#480000
0$
0+

#485000
1$
1+
b10 .

#490000
0$
0+

#495000
1$
1+
b11 .

#500000
0$
0+

#505000
1$
1+
b100 .

#510000
0$
0+

#515000
1$
1+
b0 .
0/

#520000
bx #
0$
0'
bx *
0+
b0 0
11
12

#525000
1$
1+
b1 .

#530000
0$
0+

#535000
1$
1+
b10 .

#540000
0$
0+

#545000
1$
1+
b11 .

#550000
0$
0+

#555000
1$
1+
b100 .

#560000
0$
0+

#565000
1$
b0 &
1+
b0 -
b0 .
1/
01
02
03
