alu_gated.vcd
$date
   Tue Apr  8 13:22:46 2025
$end

$version
  2024.1
  $dumpfile ("alu_gated.vcd") 
$end

$timescale
  1ps
$end

$scope module ALU_System_4bit_Gated_tb $end
$var reg 1 ! clk $end
$var reg 1 " reset_n $end
$var reg 4 # A [3:0] $end
$var reg 4 $ B [3:0] $end
$var reg 3 % opcode [2:0] $end
$var wire 1 & clk_out $end
$var wire 4 ' d_out [3:0] $end
$scope module uut $end
$var wire 1 ( clk $end
$var wire 1 ) reset_n $end
$var wire 4 * A [3:0] $end
$var wire 4 + B [3:0] $end
$var wire 3 , opcode [2:0] $end
$var wire 1 & clk_out $end
$var wire 4 ' d_out [3:0] $end
$var reg 3 - counter [2:0] $end
$var reg 1 . clk_divided $end
$var wire 4 / alu_result [3:0] $end
$var reg 4 0 prev_result [3:0] $end
$var reg 1 1 change_detected $end
$var wire 1 2 gated_clk $end
$var reg 4 3 d_out_reg [3:0] $end
$upscope $end
$upscope $end
$enddefinitions $end

#0
$dumpvars
0!
0"
b0 #
b0 $
b0 %
0&
b0 '
0(
0)
b0 *
b0 +
b0 ,
b0 -
0.
b0 /
b0 0
01
02
b0 3
$end

#5000
1!
1(

#10000
0!
0(

#15000
1!
1(

#20000
0!
1"
0(
1)

#25000
1!
1(
b1 -

#30000
0!
0(

#35000
1!
1(
b10 -

#40000
0!
0(

#45000
1!
1(
b11 -

#50000
0!
0(

#55000
1!
1(
b100 -

#60000
0!
b100 #
b1 $
b1 %
0(
b100 *
b1 +
b1 ,
b11 /

#65000
1!
1&
1(
b0 -
1.
b11 0
11

#70000
0!
0(

#75000
1!
1(
b1 -

#80000
0!
0(

#85000
1!
1(
b10 -

#90000
0!
0(

#95000
1!
1(
b11 -

#100000
0!
b1001 #
b11 $
b10 %
0(
b1001 *
b11 +
b10 ,
b1 /

#105000
1!
1(
b100 -

#110000
0!
0(

#115000
1!
0&
1(
b0 -
0.

#120000
0!
0(

#125000
1!
1(
b1 -

#130000
0!
0(

#135000
1!
1(
b10 -

#140000
0!
b1101 #
b1101 $
b11 %
0(
b1101 *
b1101 +
b11 ,
b1101 /

#145000
1!
1(
b11 -

#150000
0!
0(

#155000
1!
1(
b100 -

#160000
0!
0(

#165000
1!
1&
b1101 '
1(
b0 -
1.
b1101 0
12
b1101 3

#170000
0!
0(

#175000
1!
1(
b1 -

#180000
0!
b101 #
b10 $
b100 %
0(
b101 *
b10 +
b100 ,
b111 /

#185000
1!
1(
b10 -

#190000
0!
0(

#195000
1!
1(
b11 -

#200000
0!
0(

#205000
1!
1(
b100 -

#210000
0!
0(

#215000
1!
0&
1(
b0 -
0.
02

#220000
0!
b1 #
b1101 $
b101 %
0(
b1 *
b1101 +
b101 ,
b1110 /

#225000
1!
1(
b1 -

#230000
0!
0(

#235000
1!
1(
b10 -

#240000
0!
0(

#245000
1!
1(
b11 -

#250000
0!
0(

#255000
1!
1(
b100 -

#260000
0!
b110 #
b110 %
0(
b110 *
b110 ,
b1100 /

#265000
1!
1&
b1100 '
1(
b0 -
1.
b1100 0
12
b1100 3

#270000
0!
0(

#275000
1!
1(
b1 -

#280000
0!
0(

#285000
1!
1(
b10 -

#290000
0!
0(

#295000
1!
1(
b11 -

#300000
0!
b1101 #
b1100 $
b111 %
0(
b1101 *
b1100 +
b111 ,
b110 /

#305000
1!
1(
b100 -

#310000
0!
0(

#315000
1!
0&
1(
b0 -
0.
02

#320000
0!
0(

#325000
1!
1(
b1 -

#330000
0!
0(

#335000
1!
1(
b10 -

#340000
0!
b1001 #
b110 $
b0 %
0(
b1001 *
b110 +
b0 ,
b1111 /

#345000
1!
1(
b11 -

#350000
0!
0(

#355000
1!
1(
b100 -

#360000
0!
0(

#365000
1!
1&
b1111 '
1(
b0 -
1.
b1111 0
12
b1111 3

#370000
0!
0(

#375000
1!
1(
b1 -

#380000
0!
0(

#385000
1!
1(
b10 -

#390000
0!
0(

#395000
1!
1(
b11 -

#400000
0!
0(

#405000
1!
1(
b100 -

#410000
0!
0(

#415000
1!
0&
1(
b0 -
0.
02

#420000
0!
0(

#425000
1!
1(
b1 -

#430000
0!
0(

#435000
1!
1(
b10 -

#440000
0!
0(

#445000
1!
1(
b11 -

#450000
0!
0(

#455000
1!
1(
b100 -

#460000
0!
0(

#465000
1!
1&
1(
b0 -
1.
01
12

#470000
0!
0(

#475000
1!
1(
b1 -

#480000
0!
0(

#485000
1!
1(
b10 -

#490000
0!
0(

#495000
1!
1(
b11 -

#500000
0!
0(

#505000
1!
1(
b100 -

#510000
0!
0(

#515000
1!
0&
1(
b0 -
0.
02

#520000
0!
0(

#525000
1!
1(
b1 -

#530000
0!
0(

#535000
1!
1(
b10 -
