alu_system.vcd
$date
   Tue Apr  8 13:13:21 2025
$end

$version
  2024.1
  $dumpfile ("alu_system.vcd") 
$end

$timescale
  1ps
$end

$scope module tb_ALU_System_4bit_Gated $end
$var reg 1 ! clk $end
$var reg 1 " reset_n $end
$var reg 4 # A [3:0] $end
$var reg 4 $ B [3:0] $end
$var reg 3 % opcode [2:0] $end
$var wire 4 & d_out [3:0] $end
$var wire 1 ' clk_led $end
$scope module uut $end
$var wire 1 ( clk $end
$var wire 1 ) reset_n $end
$var wire 4 * A [3:0] $end
$var wire 4 + B [3:0] $end
$var wire 3 , opcode [2:0] $end
$var wire 1 ' clk_led $end
$var wire 4 & d_out [3:0] $end
$var reg 3 - counter [2:0] $end
$var reg 1 . clk_divided $end
$var reg 4 / alu_result [3:0] $end
$var reg 4 0 prev_result [3:0] $end
$var reg 1 1 change_detected $end
$var wire 1 2 gated_clk $end
$var reg 4 3 d_out_reg [3:0] $end
$upscope $end
$scope task apply_op $end
$var reg 4 4 inA [3:0] $end
$var reg 4 5 inB [3:0] $end
$var reg 3 6 op [2:0] $end
$upscope $end
$upscope $end
$enddefinitions $end

#0
$dumpvars
0!
0"
b0 #
b0 $
b0 %
b0 &
0'
0(
0)
b0 *
b0 +
b0 ,
b0 -
0.
b0 /
b0 0
01
02
b0 3
bx 4
bx 5
bx 6
$end

#5000
1!
1(

#10000
0!
0(

#15000
1!
1(

#20000
0!
1"
b10 #
b1 $
0(
1)
b10 *
b1 +
b11 /
b10 4
b1 5
b0 6

#25000
1!
1(
b1 -

#30000
0!
0(

#35000
1!
1(
b10 -

#40000
0!
0(

#45000
1!
1(
b11 -

#50000
0!
0(

#55000
1!
1(
b100 -

#60000
0!
0(

#65000
1!
1'
1(
b0 -
1.
b11 0
11

#70000
0!
0(

#75000
1!
1(
b1 -

#80000
0!
0(

#85000
1!
1(
b10 -

#90000
0!
0(

#95000
1!
1(
b11 -

#100000
0!
0(

#105000
1!
1(
b100 -

#110000
0!
0(

#115000
1!
0'
1(
b0 -
0.

#120000
0!
b11 #
b1 %
0(
b11 *
b1 ,
b10 /
b11 4
b1 6

#125000
1!
1(
b1 -

#130000
0!
0(

#135000
1!
1(
b10 -

#140000
0!
0(

#145000
1!
1(
b11 -

#150000
0!
0(

#155000
1!
1(
b100 -

#160000
0!
0(

#165000
1!
b10 &
1'
1(
b0 -
1.
b10 0
12
b10 3

#170000
0!
0(

#175000
1!
1(
b1 -

#180000
0!
0(

#185000
1!
1(
b10 -

#190000
0!
0(

#195000
1!
1(
b11 -

#200000
0!
0(

#205000
1!
1(
b100 -

#210000
0!
0(

#215000
1!
0'
1(
b0 -
0.
02

#220000
0!
b1100 #
b1010 $
b10 %
0(
b1100 *
b1010 +
b10 ,
b1000 /
b1100 4
b1010 5
b10 6

#225000
1!
1(
b1 -

#230000
0!
0(

#235000
1!
1(
b10 -

#240000
0!
0(

#245000
1!
1(
b11 -

#250000
0!
0(

#255000
1!
1(
b100 -

#260000
0!
0(

#265000
1!
b1000 &
1'
1(
b0 -
1.
b1000 0
12
b1000 3

#270000
0!
0(

#275000
1!
1(
b1 -

#280000
0!
0(

#285000
1!
1(
b10 -

#290000
0!
0(

#295000
1!
1(
b11 -

#300000
0!
0(

#305000
1!
1(
b100 -

#310000
0!
0(

#315000
1!
0'
1(
b0 -
0.
02

#320000
0!
b11 %
0(
b11 ,
b1110 /
b11 6

#325000
1!
1(
b1 -

#330000
0!
0(

#335000
1!
1(
b10 -

#340000
0!
0(

#345000
1!
1(
b11 -

#350000
0!
0(

#355000
1!
1(
b100 -

#360000
0!
0(

#365000
1!
b1110 &
1'
1(
b0 -
1.
b1110 0
12
b1110 3

#370000
0!
0(

#375000
1!
1(
b1 -

#380000
0!
0(

#385000
1!
1(
b10 -

#390000
0!
0(

#395000
1!
1(
b11 -

#400000
0!
0(

#405000
1!
1(
b100 -

#410000
0!
0(

#415000
1!
0'
1(
b0 -
0.
02

#420000
0!
b100 %
0(
b100 ,
b110 /
b100 6

#425000
1!
1(
b1 -

#430000
0!
0(

#435000
1!
1(
b10 -

#440000
0!
0(

#445000
1!
1(
b11 -

#450000
0!
0(

#455000
1!
1(
b100 -

#460000
0!
0(

#465000
1!
b110 &
1'
1(
b0 -
1.
b110 0
12
b110 3

#470000
0!
0(

#475000
1!
1(
b1 -

#480000
0!
0(

#485000
1!
1(
b10 -

#490000
0!
0(

#495000
1!
1(
b11 -

#500000
0!
0(

#505000
1!
1(
b100 -

#510000
0!
0(

#515000
1!
0'
1(
b0 -
0.
02

#520000
0!
b0 $
b101 %
0(
b0 +
b101 ,
b11 /
b0 5
b101 6

#525000
1!
1(
b1 -

#530000
0!
0(

#535000
1!
1(
b10 -

#540000
0!
0(

#545000
1!
1(
b11 -

#550000
0!
0(

#555000
1!
1(
b100 -

#560000
0!
0(

#565000
1!
b11 &
1'
1(
b0 -
1.
b11 0
12
b11 3

#570000
0!
0(

#575000
1!
1(
b1 -

#580000
0!
0(

#585000
1!
1(
b10 -

#590000
0!
0(

#595000
1!
1(
b11 -

#600000
0!
0(

#605000
1!
1(
b100 -

#610000
0!
0(

#615000
1!
0'
1(
b0 -
0.
02

#620000
0!
b1 #
b110 %
0(
b1 *
b110 ,
b10 /
b1 4
b110 6

#625000
1!
1(
b1 -

#630000
0!
0(

#635000
1!
1(
b10 -

#640000
0!
0(

#645000
1!
1(
b11 -

#650000
0!
0(

#655000
1!
1(
b100 -

#660000
0!
0(

#665000
1!
b10 &
1'
1(
b0 -
1.
b10 0
12
b10 3

#670000
0!
0(

#675000
1!
1(
b1 -

#680000
0!
0(

#685000
1!
1(
b10 -

#690000
0!
0(

#695000
1!
1(
b11 -

#700000
0!
0(

#705000
1!
1(
b100 -

#710000
0!
0(

#715000
1!
0'
1(
b0 -
0.
02

#720000
0!
b1000 #
b111 %
0(
b1000 *
b111 ,
b100 /
b1000 4
b111 6

#725000
1!
1(
b1 -

#730000
0!
0(

#735000
1!
1(
b10 -

#740000
0!
0(

#745000
1!
1(
b11 -

#750000
0!
0(

#755000
1!
1(
b100 -

#760000
0!
0(

#765000
1!
b100 &
1'
1(
b0 -
1.
b100 0
12
b100 3

#770000
0!
0(

#775000
1!
1(
b1 -

#780000
0!
0(

#785000
1!
1(
b10 -

#790000
0!
0(

#795000
1!
1(
b11 -

#800000
0!
0(

#805000
1!
1(
b100 -

#810000
0!
0(

#815000
1!
0'
1(
b0 -
0.
02

#820000
0!
0(

#825000
1!
1(
b1 -

#830000
0!
0(

#835000
1!
1(
b10 -

#840000
0!
0(

#845000
1!
1(
b11 -

#850000
0!
0(

#855000
1!
1(
b100 -

#860000
0!
0(

#865000
1!
1'
1(
b0 -
1.
01
12

#870000
0!
0(

#875000
1!
1(
b1 -

#880000
0!
0(

#885000
1!
1(
b10 -

#890000
0!
0(

#895000
1!
1(
b11 -

#900000
0!
0(

#905000
1!
1(
b100 -

#910000
0!
0(

#915000
1!
0'
1(
b0 -
0.
02

#920000
0!
0(

#925000
1!
1(
b1 -

#930000
0!
0(

#935000
1!
1(
b10 -

#940000
0!
0(

#945000
1!
1(
b11 -

#950000
0!
0(

#955000
1!
1(
b100 -

#960000
0!
0(

#965000
1!
1'
1(
b0 -
1.

#970000
0!
0(

#975000
1!
1(
b1 -

#980000
0!
0(

#985000
1!
1(
b10 -

#990000
0!
0(

#995000
1!
1(
b11 -

