alu_waveform.vcd
$date
   Thu Apr  3 20:58:10 2025
$end

$version
  2024.1
  $dumpfile ("alu_waveform.vcd") 
$end

$timescale
  1ps
$end

$scope module ALU_System_tb $end
$var reg 4 ! A [3:0] $end
$var reg 4 " B [3:0] $end
$var reg 3 # opcode [2:0] $end
$var reg 1 $ clk $end
$var reg 1 % reset $end
$var wire 4 & d_out [3:0] $end
$scope module uut $end
$var wire 4 ' A [3:0] $end
$var wire 4 ( B [3:0] $end
$var wire 3 ) opcode [2:0] $end
$var wire 1 * clk $end
$var wire 1 + reset $end
$var reg 4 , d_out [3:0] $end
$var reg 3 - counter [2:0] $end
$var reg 1 . clk_divided $end
$var reg 5 / alu_result [4:0] $end
$var reg 1 0 output_latch $end
$var wire 1 1 clk_gated $end
$upscope $end
$upscope $end
$enddefinitions $end

#0
$dumpvars
b0 !
b0 "
b0 #
0$
1%
b0 &
b0 '
b0 (
b0 )
0*
1+
b0 ,
b0 -
0.
b0 /
00
01
$end

#5000
1$
1*

#10000
0$
0*

#15000
1$
1*

#20000
0$
0%
0*
0+

#25000
1$
1*
b1 -

#30000
0$
0*

#35000
1$
1*
b10 -

#40000
b11 !
b101 "
0$
b11 '
b101 (
0*
b1000 /

#45000
1$
1*
b11 -
10

#50000
0$
0*

#55000
1$
1*
b100 -

#60000
0$
0*

#65000
1$
b1000 &
1*
b1000 ,
b0 -
1.
11

#70000
0$
0*

#75000
1$
1*
b1 -
00
01

#80000
0$
0*

#85000
1$
1*
b10 -

#90000
b1111 !
b1 "
0$
b1111 '
b1 (
0*
b10000 /

#95000
1$
b0 &
1*
b0 ,
b11 -
10
11

#100000
0$
0*

#105000
1$
1*
b100 -
00
01

#110000
0$
0*

#115000
1$
1*
b0 -
0.

#120000
0$
0*

#125000
1$
1*
b1 -

#130000
0$
0*

#135000
1$
1*
b10 -

#140000
b1000 !
b11 "
b1 #
0$
b1000 '
b11 (
b1 )
0*
b101 /

#145000
1$
1*
b11 -
10

#150000
0$
0*

#155000
1$
1*
b100 -

#160000
0$
0*

#165000
1$
b101 &
1*
b101 ,
b0 -
1.
11

#170000
0$
0*

#175000
1$
1*
b1 -
00
01

#180000
0$
0*

#185000
1$
1*
b10 -

#190000
b1 !
b10 "
0$
b1 '
b10 (
0*
b11111 /

#195000
1$
b1111 &
1*
b1111 ,
b11 -
10
11

#200000
0$
0*

#205000
1$
1*
b100 -
00
01

#210000
0$
0*

#215000
1$
1*
b0 -
0.

#220000
0$
0*

#225000
1$
1*
b1 -

#230000
0$
0*

#235000
1$
1*
b10 -

#240000
b1100 !
b1010 "
b10 #
0$
b1100 '
b1010 (
b10 )
0*
b1000 /

#245000
1$
1*
b11 -
10

#250000
0$
0*

#255000
1$
1*
b100 -

#260000
0$
0*

#265000
1$
b1000 &
1*
b1000 ,
b0 -
1.
11

#270000
0$
0*

#275000
1$
1*
b1 -
00
01

#280000
0$
0*

#285000
1$
1*
b10 -

#290000
b11 #
0$
b11 )
0*
b1110 /

#295000
1$
b1110 &
1*
b1110 ,
b11 -
10
11

#300000
0$
0*

#305000
1$
1*
b100 -
00
01

#310000
0$
0*

#315000
1$
1*
b0 -
0.

#320000
0$
0*

#325000
1$
1*
b1 -

#330000
0$
0*

#335000
1$
1*
b10 -

#340000
b100 #
0$
b100 )
0*
b110 /

#345000
1$
1*
b11 -
10

#350000
0$
0*

#355000
1$
1*
b100 -

#360000
0$
0*

#365000
1$
b110 &
1*
b110 ,
b0 -
1.
11

#370000
0$
0*

#375000
1$
1*
b1 -
00
01

#380000
0$
0*

#385000
1$
1*
b10 -

#390000
bx "
b101 #
0$
bx (
b101 )
0*
b11 /

#395000
1$
b11 &
1*
b11 ,
b11 -
10
11

#400000
0$
0*

#405000
1$
1*
b100 -
00
01

#410000
0$
0*

#415000
1$
1*
b0 -
0.

#420000
0$
0*

#425000
1$
1*
b1 -

#430000
0$
0*

#435000
1$
1*
b10 -

#440000
b1101 !
b110 #
0$
b1101 '
b110 )
0*
b11010 /

#445000
1$
1*
b11 -
10

#450000
0$
0*

#455000
1$
1*
b100 -

#460000
0$
0*

#465000
1$
b1010 &
1*
b1010 ,
b0 -
1.
11

#470000
0$
0*

#475000
1$
1*
b1 -
00
01

#480000
0$
0*

#485000
1$
1*
b10 -

#490000
b111 #
0$
b111 )
0*
b1110 /

#495000
1$
b1110 &
1*
b1110 ,
b11 -
10
11

#500000
0$
0*

#505000
1$
1*
b100 -
00
01

#510000
0$
0*

#515000
1$
1*
b0 -
0.

#520000
0$
0*

#525000
1$
1*
b1 -

#530000
0$
0*

#535000
1$
1*
b10 -
